{
  "PrecutPuzzleImages": [
    {
      "PuzzleImageUrl": "_BundledAssets/Puzzle/Textures/Puzzle_1",
      "IsFree": true
    },
    {
      "PuzzleImageUrl": "_BundledAssets/Puzzle/Textures/Puzzle_2",
      "IsFree": true
    },
    {
      "PuzzleImageUrl": "_BundledAssets/Puzzle/Textures/Puzzle_3",
      "IsFree": true
    },
    {
      "PuzzleImageUrl": "_BundledAssets/Puzzle/Textures/Puzzle_4",
      "IsFree": true
    },
    {
      "PuzzleImageUrl": "_BundledAssets/Puzzle/Textures/Puzzle_5",
      "IsFree": true
    },
    {
      "PuzzleImageUrl": "_BundledAssets/Puzzle/Textures/Puzzle_6",
      "IsFree": true
    },
    {
      "PuzzleImageUrl": "_BundledAssets/Puzzle/Textures/Puzzle_7",
      "IsFree": false
    },
    {
      "PuzzleImageUrl": "_BundledAssets/Puzzle/Textures/Puzzle_8",
      "IsFree": false
    },
    {
      "PuzzleImageUrl": "_BundledAssets/Puzzle/Textures/Puzzle_9",
      "IsFree": false
    },
    {
      "PuzzleImageUrl": "_BundledAssets/Puzzle/Textures/Puzzle_10",
      "IsFree": false
    },
    {
      "PuzzleImageUrl": "_BundledAssets/Puzzle/Textures/Puzzle_11",
      "IsFree": false
    },
    {
      "PuzzleImageUrl": "_BundledAssets/Puzzle/Textures/Puzzle_12",
      "IsFree": false
    },
    {
      "PuzzleImageUrl": "_BundledAssets/Puzzle/Textures/Puzzle_13",
      "IsFree": false
    },
    {
      "PuzzleImageUrl": "_BundledAssets/Puzzle/Textures/Puzzle_14",
      "IsFree": false
    },
    {
      "PuzzleImageUrl": "_BundledAssets/Puzzle/Textures/Puzzle_15",
      "IsFree": false
    },
    {
      "PuzzleImageUrl": "_BundledAssets/Puzzle/Textures/Puzzle_16",
      "IsFree": false
    },
    {
      "PuzzleImageUrl": "_BundledAssets/Puzzle/Textures/Puzzle_17",
      "IsFree": false
    },
    {
      "PuzzleImageUrl": "_BundledAssets/Puzzle/Textures/Puzzle_18",
      "IsFree": false
    },
    {
      "PuzzleImageUrl": "_BundledAssets/Puzzle/Textures/Puzzle_19",
      "IsFree": false
    },
    {
      "PuzzleImageUrl": "_BundledAssets/Puzzle/Textures/Puzzle_20",
      "IsFree": false
    },
    {
      "PuzzleImageUrl": "_BundledAssets/Puzzle/Textures/Puzzle_21",
      "IsFree": false
    },
    {
      "PuzzleImageUrl": "_BundledAssets/Puzzle/Textures/Puzzle_22",
      "IsFree": false
    },
    {
      "PuzzleImageUrl": "_BundledAssets/Puzzle/Textures/Puzzle_23",
      "IsFree": false
    },
    {
      "PuzzleImageUrl": "_BundledAssets/Puzzle/Textures/Puzzle_24",
      "IsFree": false
    },
    {
      "PuzzleImageUrl": "_BundledAssets/Puzzle/Textures/Puzzle_25",
      "IsFree": false
    },
    {
      "PuzzleImageUrl": "_BundledAssets/Puzzle/Textures/Puzzle_26",
      "IsFree": false
    },
    {
      "PuzzleImageUrl": "_BundledAssets/Puzzle/Textures/Puzzle_27",
      "IsFree": false
    },
    {
      "PuzzleImageUrl": "_BundledAssets/Puzzle/Textures/Puzzle_28",
      "IsFree": false
    },
    {
      "PuzzleImageUrl": "_BundledAssets/Puzzle/Textures/Puzzle_29",
      "IsFree": false
    },
    {
      "PuzzleImageUrl": "_BundledAssets/Puzzle/Textures/Puzzle_30",
      "IsFree": false
    },
    {
      "PuzzleImageUrl": "_BundledAssets/Puzzle/Textures/Puzzle_31",
      "IsFree": false
    },
    {
      "PuzzleImageUrl": "_BundledAssets/Puzzle/Textures/Puzzle_32",
      "IsFree": false
    },
    {
      "PuzzleImageUrl": "_BundledAssets/Puzzle/Textures/Puzzle_33",
      "IsFree": false
    },
    {
      "PuzzleImageUrl": "_BundledAssets/Puzzle/Textures/Puzzle_34",
      "IsFree": false
    }
  ]
}