%YAML 1.1
%TAG !u! tag:unity3d.com,2011:
--- !u!29 &1
OcclusionCullingSettings:
  m_ObjectHideFlags: 0
  serializedVersion: 2
  m_OcclusionBakeSettings:
    smallestOccluder: 5
    smallestHole: 0.25
    backfaceThreshold: 100
  m_SceneGUID: 00000000000000000000000000000000
  m_OcclusionCullingData: {fileID: 0}
--- !u!104 &2
RenderSettings:
  m_ObjectHideFlags: 0
  serializedVersion: 8
  m_Fog: 0
  m_FogColor: {r: 0.5, g: 0.5, b: 0.5, a: 1}
  m_FogMode: 3
  m_FogDensity: 0.01
  m_LinearFogStart: 0
  m_LinearFogEnd: 300
  m_AmbientSkyColor: {r: 0.212, g: 0.227, b: 0.259, a: 1}
  m_AmbientEquatorColor: {r: 0.114, g: 0.125, b: 0.133, a: 1}
  m_AmbientGroundColor: {r: 0.047, g: 0.043, b: 0.035, a: 1}
  m_AmbientIntensity: 1
  m_AmbientMode: 0
  m_SubtractiveShadowColor: {r: 0.42, g: 0.478, b: 0.627, a: 1}
  m_SkyboxMaterial: {fileID: 10304, guid: 0000000000000000f000000000000000, type: 0}
  m_HaloStrength: 0.5
  m_FlareStrength: 1
  m_FlareFadeSpeed: 3
  m_HaloTexture: {fileID: 0}
  m_SpotCookie: {fileID: 10001, guid: 0000000000000000e000000000000000, type: 0}
  m_DefaultReflectionMode: 0
  m_DefaultReflectionResolution: 128
  m_ReflectionBounces: 1
  m_ReflectionIntensity: 1
  m_CustomReflection: {fileID: 0}
  m_Sun: {fileID: 0}
  m_IndirectSpecularColor: {r: 0.12731749, g: 0.13414757, b: 0.1210787, a: 1}
--- !u!157 &3
LightmapSettings:
  m_ObjectHideFlags: 0
  serializedVersion: 9
  m_GIWorkflowMode: 0
  m_GISettings:
    serializedVersion: 2
    m_BounceScale: 1
    m_IndirectOutputScale: 1
    m_AlbedoBoost: 1
    m_TemporalCoherenceThreshold: 1
    m_EnvironmentLightingMode: 0
    m_EnableBakedLightmaps: 1
    m_EnableRealtimeLightmaps: 1
  m_LightmapEditorSettings:
    serializedVersion: 8
    m_Resolution: 2
    m_BakeResolution: 40
    m_TextureWidth: 1024
    m_TextureHeight: 1024
    m_AO: 0
    m_AOMaxDistance: 1
    m_CompAOExponent: 1
    m_CompAOExponentDirect: 0
    m_Padding: 2
    m_LightmapParameters: {fileID: 0}
    m_LightmapsBakeMode: 1
    m_TextureCompression: 1
    m_FinalGather: 0
    m_FinalGatherFiltering: 1
    m_FinalGatherRayCount: 256
    m_ReflectionCompression: 2
    m_MixedBakeMode: 3
    m_BakeBackend: 0
    m_PVRSampling: 1
    m_PVRDirectSampleCount: 32
    m_PVRSampleCount: 500
    m_PVRBounces: 2
    m_PVRFilterTypeDirect: 0
    m_PVRFilterTypeIndirect: 0
    m_PVRFilterTypeAO: 0
    m_PVRFilteringMode: 1
    m_PVRCulling: 1
    m_PVRFilteringGaussRadiusDirect: 1
    m_PVRFilteringGaussRadiusIndirect: 5
    m_PVRFilteringGaussRadiusAO: 2
    m_PVRFilteringAtrousPositionSigmaDirect: 0.5
    m_PVRFilteringAtrousPositionSigmaIndirect: 2
    m_PVRFilteringAtrousPositionSigmaAO: 1
  m_LightingDataAsset: {fileID: 0}
  m_ShadowMaskMode: 2
--- !u!196 &4
NavMeshSettings:
  serializedVersion: 2
  m_ObjectHideFlags: 0
  m_BuildSettings:
    serializedVersion: 2
    agentTypeID: 0
    agentRadius: 0.5
    agentHeight: 2
    agentSlope: 45
    agentClimb: 0.4
    ledgeDropHeight: 0
    maxJumpAcrossDistance: 0
    minRegionArea: 2
    manualCellSize: 0
    cellSize: 0.16666667
    manualTileSize: 0
    tileSize: 256
    accuratePlacement: 0
  m_NavMeshData: {fileID: 0}
--- !u!1 &939090645
GameObject:
  m_ObjectHideFlags: 0
  m_PrefabParentObject: {fileID: 0}
  m_PrefabInternal: {fileID: 0}
  serializedVersion: 5
  m_Component:
  - component: {fileID: 939090647}
  - component: {fileID: 939090650}
  - component: {fileID: 939090649}
  - component: {fileID: 939090646}
  m_Layer: 0
  m_Name: Sphere-ApplyToMesh
  m_TagString: Untagged
  m_Icon: {fileID: 0}
  m_NavMeshLayer: 0
  m_StaticEditorFlags: 0
  m_IsActive: 1
--- !u!114 &939090646
MonoBehaviour:
  m_ObjectHideFlags: 0
  m_PrefabParentObject: {fileID: 0}
  m_PrefabInternal: {fileID: 0}
  m_GameObject: {fileID: 939090645}
  m_Enabled: 1
  m_EditorHideFlags: 0
  m_Script: {fileID: 11500000, guid: f6d1977a52888584496b1acc7e998011, type: 3}
  m_Name: 
  m_EditorClassIdentifier: 
  _media: {fileID: 1516615348}
  _automaticStereoPacking: 1
  _overrideStereoPacking: 0
  _stereoRedGreenTint: 0
  _defaultTexture: {fileID: 0}
  _renderer: {fileID: 939090649}
  _materialIndex: -1
  _texturePropertyName: _MainTex
  _offset: {x: 0, y: 0}
  _scale: {x: 1, y: 1}
--- !u!4 &939090647
Transform:
  m_ObjectHideFlags: 0
  m_PrefabParentObject: {fileID: 0}
  m_PrefabInternal: {fileID: 0}
  m_GameObject: {fileID: 939090645}
  m_LocalRotation: {x: 0, y: 0, z: 0, w: 1}
  m_LocalPosition: {x: 0, y: 0, z: 0}
  m_LocalScale: {x: 100, y: 100, z: 100}
  m_Children: []
  m_Father: {fileID: 0}
  m_RootOrder: 2
  m_LocalEulerAnglesHint: {x: 0, y: 0, z: 0}
--- !u!23 &939090649
MeshRenderer:
  m_ObjectHideFlags: 0
  m_PrefabParentObject: {fileID: 0}
  m_PrefabInternal: {fileID: 0}
  m_GameObject: {fileID: 939090645}
  m_Enabled: 1
  m_CastShadows: 1
  m_ReceiveShadows: 1
  m_MotionVectors: 1
  m_LightProbeUsage: 1
  m_ReflectionProbeUsage: 1
  m_Materials:
  - {fileID: 2100000, guid: db39bb6249db0924bb87d6e0bb294ed3, type: 2}
  m_StaticBatchInfo:
    firstSubMesh: 0
    subMeshCount: 0
  m_StaticBatchRoot: {fileID: 0}
  m_ProbeAnchor: {fileID: 0}
  m_LightProbeVolumeOverride: {fileID: 0}
  m_ScaleInLightmap: 1
  m_PreserveUVs: 0
  m_IgnoreNormalsForChartDetection: 0
  m_ImportantGI: 0
  m_SelectedEditorRenderState: 3
  m_MinimumChartSize: 4
  m_AutoUVMaxDistance: 0.5
  m_AutoUVMaxAngle: 89
  m_LightmapParameters: {fileID: 0}
  m_SortingLayerID: 0
  m_SortingLayer: 0
  m_SortingOrder: 0
--- !u!33 &939090650
MeshFilter:
  m_ObjectHideFlags: 0
  m_PrefabParentObject: {fileID: 0}
  m_PrefabInternal: {fileID: 0}
  m_GameObject: {fileID: 939090645}
  m_Mesh: {fileID: 4300000, guid: 7ea26c1ee23534e45906e4c8dd184883, type: 2}
--- !u!1 &1516615347
GameObject:
  m_ObjectHideFlags: 0
  m_PrefabParentObject: {fileID: 0}
  m_PrefabInternal: {fileID: 0}
  serializedVersion: 5
  m_Component:
  - component: {fileID: 1516615349}
  - component: {fileID: 1516615348}
  m_Layer: 0
  m_Name: MediaPlayer
  m_TagString: Untagged
  m_Icon: {fileID: 0}
  m_NavMeshLayer: 0
  m_StaticEditorFlags: 0
  m_IsActive: 1
--- !u!114 &1516615348
MonoBehaviour:
  m_ObjectHideFlags: 0
  m_PrefabParentObject: {fileID: 0}
  m_PrefabInternal: {fileID: 0}
  m_GameObject: {fileID: 1516615347}
  m_Enabled: 1
  m_EditorHideFlags: 0
  m_Script: {fileID: 11500000, guid: 638c870cac4da414fba921606d504407, type: 3}
  m_Name: 
  m_EditorClassIdentifier: 
  _mediaSource: 0
  _mediaReference: {fileID: 11400000, guid: 0d696b76d81c0e640a7dbcc2d148b9ec, type: 2}
  _mediaPath:
    _pathType: 2
    _path: AVProVideoSamples/BigBuckBunny-360p30-H264.mp4
  _fallbackMediaHints:
    transparency: 0
    alphaPacking: 0
    stereoPacking: 0
  _autoOpen: 1
  _autoPlayOnStart: 1
  _loop: 1
  _audioVolume: 1
  _audioBalance: 0
  _audioMuted: 0
  _playbackRate: 1
  _useResampler: 0
  _resampleMode: 0
  _resampleBufferSize: 5
  _videoMapping: 0
  _textureFilterMode: 1
  _textureWrapMode: 1
  _textureAnisoLevel: 0
  _sideloadSubtitles: 0
  _subtitlePath:
    _pathType: 2
    _path: AVProVideoSamples/Cones-2D-4K60-HEVC.mp4
  _audioHeadTransform: {fileID: 0}
  _audioFocusEnabled: 0
  _audioFocusTransform: {fileID: 0}
  _audioFocusWidthDegrees: 90
  _audioFocusOffLevelDB: 0
  _httpHeaders:
    httpHeaders: []
  _keyAuth:
    keyServerToken: 
    overrideDecryptionKeyBase64: 
    overrideDecryptionKey: 
  _events:
    m_PersistentCalls:
      m_Calls: []
    m_TypeName: RenderHeads.Media.AVProVideo.MediaPlayerEvent, Assembly-CSharp, Version=0.0.0.0,
      Culture=neutral, PublicKeyToken=null
  _eventMask: -1
  _pauseMediaOnAppPause: 1
  _playMediaOnAppUnpause: 1
  _persistent: 0
  _forceFileFormat: 0
  _optionsWindows:
    httpHeaders:
      httpHeaders: []
    keyAuth:
      keyServerToken: 
      overrideDecryptionKeyBase64: 
      overrideDecryptionKey: 
    videoApi: 0
    useHardwareDecoding: 1
    useTextureMips: 0
    use10BitTextures: 0
    hintAlphaChannel: 0
    useLowLatency: 0
    forceAudioOutputDeviceName: 
    preferredFilters: []
    audioOutput: 0
    audio360ChannelMode: 0
    startWithHighestBitrate: 0
  _optionsMacOSX:
    httpHeaders:
      httpHeaders: []
    keyAuth:
      keyServerToken: 
      overrideDecryptionKeyBase64: 
      overrideDecryptionKey: 
    textureFormat: 0
    audioMode: 0
    flags: 0
  _optionsIOS:
    httpHeaders:
      httpHeaders: []
    keyAuth:
      keyServerToken: 
      overrideDecryptionKeyBase64: 
      overrideDecryptionKey: 
    textureFormat: 0
    audioMode: 0
    flags: 0
  _optionsTVOS:
    httpHeaders:
      httpHeaders: []
    keyAuth:
      keyServerToken: 
      overrideDecryptionKeyBase64: 
      overrideDecryptionKey: 
    textureFormat: 0
    audioMode: 0
    flags: 0
  _optionsAndroid:
    httpHeaders:
      httpHeaders: []
    keyAuth:
      keyServerToken: 
      overrideDecryptionKeyBase64: 
      overrideDecryptionKey: 
    videoApi: 2
    useFastOesPath: 0
    showPosterFrame: 0
    audioOutput: 0
    audio360ChannelMode: 0
    preferSoftwareDecoder: 0
    fileOffset: 0
    startWithHighestBitrate: 0
    minBufferMs: 50000
    maxBufferMs: 50000
    bufferForPlaybackMs: 2500
    bufferForPlaybackAfterRebufferMs: 5000
  _optionsWindowsUWP:
    httpHeaders:
      httpHeaders: []
    keyAuth:
      keyServerToken: 
      overrideDecryptionKeyBase64: 
      overrideDecryptionKey: 
    useHardwareDecoding: 1
    useTextureMips: 0
    use10BitTextures: 0
    hintOutput10Bit: 0
    useLowLatency: 0
    videoApi: 1
    audioOutput: 0
    audio360ChannelMode: 0
    startWithHighestBitrate: 0
  _optionsWebGL:
    httpHeaders:
      httpHeaders: []
    keyAuth:
      keyServerToken: 
      overrideDecryptionKeyBase64: 
      overrideDecryptionKey: 
    externalLibrary: 0
    useTextureMips: 0
--- !u!4 &1516615349
Transform:
  m_ObjectHideFlags: 0
  m_PrefabParentObject: {fileID: 0}
  m_PrefabInternal: {fileID: 0}
  m_GameObject: {fileID: 1516615347}
  m_LocalRotation: {x: 0, y: 0, z: 0, w: 1}
  m_LocalPosition: {x: 0, y: 0, z: 0}
  m_LocalScale: {x: 1, y: 1, z: 1}
  m_Children: []
  m_Father: {fileID: 0}
  m_RootOrder: 1
  m_LocalEulerAnglesHint: {x: 0, y: 0, z: 0}
--- !u!1 &1629360130
GameObject:
  m_ObjectHideFlags: 0
  m_PrefabParentObject: {fileID: 0}
  m_PrefabInternal: {fileID: 0}
  serializedVersion: 5
  m_Component:
  - component: {fileID: 1629360132}
  - component: {fileID: 1629360131}
  m_Layer: 0
  m_Name: UpdateMultiPassStereo
  m_TagString: Untagged
  m_Icon: {fileID: 0}
  m_NavMeshLayer: 0
  m_StaticEditorFlags: 0
  m_IsActive: 1
--- !u!114 &1629360131
MonoBehaviour:
  m_ObjectHideFlags: 0
  m_PrefabParentObject: {fileID: 0}
  m_PrefabInternal: {fileID: 0}
  m_GameObject: {fileID: 1629360130}
  m_Enabled: 1
  m_EditorHideFlags: 0
  m_Script: {fileID: 11500000, guid: 8b2366b5575fcba46a0f97038fb6c5fb, type: 3}
  m_Name: 
  m_EditorClassIdentifier: 
  _camera: {fileID: 1981163067}
--- !u!4 &1629360132
Transform:
  m_ObjectHideFlags: 0
  m_PrefabParentObject: {fileID: 0}
  m_PrefabInternal: {fileID: 0}
  m_GameObject: {fileID: 1629360130}
  m_LocalRotation: {x: 0, y: 0, z: 0, w: 1}
  m_LocalPosition: {x: 0, y: 0, z: 0}
  m_LocalScale: {x: 1, y: 1, z: 1}
  m_Children: []
  m_Father: {fileID: 0}
  m_RootOrder: 3
  m_LocalEulerAnglesHint: {x: 0, y: 0, z: 0}
--- !u!1 &1981163064
GameObject:
  m_ObjectHideFlags: 0
  m_PrefabParentObject: {fileID: 0}
  m_PrefabInternal: {fileID: 0}
  serializedVersion: 5
  m_Component:
  - component: {fileID: 1981163068}
  - component: {fileID: 1981163067}
  - component: {fileID: 1981163066}
  - component: {fileID: 1981163065}
  m_Layer: 0
  m_Name: Main Camera
  m_TagString: MainCamera
  m_Icon: {fileID: 0}
  m_NavMeshLayer: 0
  m_StaticEditorFlags: 0
  m_IsActive: 1
--- !u!114 &1981163065
MonoBehaviour:
  m_ObjectHideFlags: 0
  m_PrefabParentObject: {fileID: 0}
  m_PrefabInternal: {fileID: 0}
  m_GameObject: {fileID: 1981163064}
  m_Enabled: 1
  m_EditorHideFlags: 0
  m_Script: {fileID: 11500000, guid: 0e87d2abb8af1da4aa3e1949ee6d680d, type: 3}
  m_Name: 
  m_EditorClassIdentifier: 
  _lockPitch: 0
  _maxSpinSpeed: 40
  _spinDamping: 5
--- !u!81 &1981163066
AudioListener:
  m_ObjectHideFlags: 0
  m_PrefabParentObject: {fileID: 0}
  m_PrefabInternal: {fileID: 0}
  m_GameObject: {fileID: 1981163064}
  m_Enabled: 1
--- !u!20 &1981163067
Camera:
  m_ObjectHideFlags: 0
  m_PrefabParentObject: {fileID: 0}
  m_PrefabInternal: {fileID: 0}
  m_GameObject: {fileID: 1981163064}
  m_Enabled: 1
  serializedVersion: 2
  m_ClearFlags: 2
  m_BackGroundColor: {r: 0.19215687, g: 0.3019608, b: 0.4745098, a: 0}
  m_NormalizedViewPortRect:
    serializedVersion: 2
    x: 0
    y: 0
    width: 1
    height: 1
  near clip plane: 0.3
  far clip plane: 1000
  field of view: 60
  orthographic: 0
  orthographic size: 5
  m_Depth: -1
  m_CullingMask:
    serializedVersion: 2
    m_Bits: 4294967295
  m_RenderingPath: -1
  m_TargetTexture: {fileID: 0}
  m_TargetDisplay: 0
  m_TargetEye: 3
  m_HDR: 0
  m_AllowMSAA: 0
  m_ForceIntoRT: 0
  m_OcclusionCulling: 0
  m_StereoConvergence: 10
  m_StereoSeparation: 0.022
  m_StereoMirrorMode: 0
--- !u!4 &1981163068
Transform:
  m_ObjectHideFlags: 0
  m_PrefabParentObject: {fileID: 0}
  m_PrefabInternal: {fileID: 0}
  m_GameObject: {fileID: 1981163064}
  m_LocalRotation: {x: 0, y: 0, z: 0, w: 1}
  m_LocalPosition: {x: 0, y: 0, z: -2.31}
  m_LocalScale: {x: 1, y: 1, z: 1}
  m_Children: []
  m_Father: {fileID: 0}
  m_RootOrder: 0
  m_LocalEulerAnglesHint: {x: 0, y: 0, z: 0}
