{
  "bubbles": {
    "ShadowMatchActivity": {
      "m": 5,
      "o": 10,
      "e": 15,
      "l": 5,
      "a": 0,
      "i": 0,
      "c": 20,
      "s": 25
    },
    "InteractiveRhymeGallery": {
      "m": 5,
      "o": 10,
      "e": 15,
      "l": 5,
      "a": 0,
      "i": 0,
      "c": 20,
      "s": 25
    },
    "ColoringActivity": {
      "m": 5,
      "o": 10,
      "e": 15,
      "l": 5,
      "a": 0,
      "i": 0,
      "c": 20,
      "s": 25
    },
    "ScratchingActivity": {
      "m": 5,
      "o": 10,
      "e": 15,
      "l": 5,
      "a": 0,
      "i": 0,
      "c": 20,
      "s": 25
    },
    "JoinDotsActivity": {
      "m": 5,
      "o": 10,
      "e": 15,
      "l": 5,
      "a": 0,
      "i": 0,
      "c": 20,
      "s": 25
    },
    "TracingMain": {
      "m": 5,
      "o": 10,
      "e": 15,
      "l": 5,
      "a": 0,
      "i": 0,
      "c": 20,
      "s": 25
    },
    "LearningWheelActivity": {
      "m": 5,
      "o": 10,
      "e": 15,
      "l": 5,
      "a": 0,
      "i": 0,
      "c": 20,
      "s": 25
    },
    "PuzzleActivity": {
      "m": 5,
      "o": 10,
      "e": 15,
      "l": 5,
      "a": 0,
      "i": 0,
      "c": 20,
      "s": 25
    },
    "Video": {
      "m": 5,
      "o": 10,
      "e": 15,
      "l": 5,
      "a": 0,
      "i": 0,
      "c": 20,
      "s": 25
    },
    "Story": {
      "m": 5,
      "o": 10,
      "e": 15,
      "l": 5,
      "a": 0,
      "i": 0,
      "c": 20,
      "s": 25
    }
	}
}